04/07/2015 19:18:06 Site page loading
04/07/2015 19:18:06 Form keys on page: 0
04/07/2015 19:18:38 Site page loading
04/07/2015 19:18:38 Form keys on page: 24
04/07/2015 19:18:38 System ID: 
04/07/2015 19:18:38 Num Correct: 10
04/07/2015 19:18:38 Total Q's: 30
04/07/2015 19:18:38 Quiz Field: EHS_3
04/07/2015 19:21:16 Successfully updated
04/07/2015 19:21:41 Site page loading
04/07/2015 19:21:41 Form keys on page: 0
04/07/2015 19:21:43 Site page loading
04/07/2015 19:21:43 Form keys on page: 24
04/07/2015 19:21:43 System ID: 
04/07/2015 19:21:43 Num Correct: 10
04/07/2015 19:21:43 Total Q's: 30
04/07/2015 19:21:43 Quiz Field: EHS_3
04/07/2015 19:22:31 Successfully updated
